%YAML 1.1
%TAG !u! tag:unity3d.com,2011:
--- !u!78 &1
TagManager:
  serializedVersion: 2
  tags:
  - Exit
  - Fruit
  - Soda
  - Cookie
  layers:
  - Default
  - TransparentFX
  - Ignore Raycast
  - 
  - Water
  - UI
  - 
  - 
  - Collision Layer
  - 
  - 
  - 
  - 
  - 
  - 
  - 
  - 
  - 
  - 
  - 
  - 
  - 
  - 
  - 
  - 
  - 
  - 
  - 
  - 
  - 
  - 
  - 
  m_SortingLayers:
  - name: Default
    uniqueID: 0
    locked: 0
  - name: Floor
    uniqueID: 2992151743
    locked: 0
  - name: Obstacles
    uniqueID: 2199296169
    locked: 0
  - name: Food
    uniqueID: 1842507031
    locked: 0
  - name: Characters
    uniqueID: 1641946773
    locked: 0
